1 10 20
100 200 125
201 210 89
900 1000 174
1 1 1
2 3 8
20 20 8
3311 3457 181
8042 6427 257
509 2786 209
8005 8865 234
5725 5444 236
6714 237 262
2378 5851 238
137 9954 262
2485 8891 262
7128 7538 239
7100 2126 262
6790 7002 257
2580 5874 238
8214 291 262
1824 2102 175
3505 686 217
7204 5346 262
1392 3728 238
8749 5787 262
6657 2394 262
7021 7381 195
9386 6097 262
3939 6457 262
2864 8631 262
4825 7122 262
1565 6821 262
9791 827 262
3110 9591 262
1490 4385 238
9776 1066 262
1464 5775 238
6744 6461 244
2551 710 209
6795 5603 262
4208 898 238
6361 2161 262
9511 5968 262
7269 9925 260
9839 67 262
7275 603 262
5494 3691 238
616 2643 209
4251 6069 236
4105 312 238
2404 1754 183
8937 1472 262
2840 2891 173
4609 8795 262
9413 9844 198
8079 7379 252
964 2730 209
5229 7965 262
205 8624 262
6738 1708 262
6194 4119 262
1774 2441 183
2275 9445 262
5359 3170 238
3006 1923 217
5820 8378 262
3400 8505 262
1455 3409 217
5393 666 238
1715 44 182
2709 6787 262
1278 635 182
7442 8187 252
127 7507 262
6639 608 262
1216 2456 183
6921 7232 257
5092 2951 238
2016 4146 238
9833 5955 262
6089 6105 156
7208 5824 262
6848 534 262
5317 5467 192
6420 1137 262
6048 2308 238
7084 2122 262
4308 970 238
9566 1561 262
5419 2669 238
3931 2222 238
1975 496 182
7162 5419 262
7266 7457 239
8838 8526 216
3610 9474 262
6847 6326 244
687 694 127
8943 584 262
9531 6877 260
9585 9463 198
6550 3291 262
9829 2385 262
7658 3797 262
9723 3084 262
2748 8643 262
21987 27518 308
71148 52811 335
25871 70068 340
59758 27714 340
57193 88257 351
39542 46085 314
70369 58749 335
96332 32112 351
88139 24055 351
10730 29789 308
43383 40378 288
23465 89789 351
91984 76807 351
29097 59260 340
77055 59250 351
54716 20477 340
21579 83403 351
11299 25772 282
59287 39788 340
61640 81160 351
30559 67066 340
41319 15115 324
97938 76125 351
54432 64621 335
39531 76524 340
41434 12076 324
98582 77780 338
18660 83227 351
80845 72704 351
85630 68897 351
52440 78332 351
65810 17767 340
31672 54477 340
61159 34542 340
89582 93788 333
52476 99686 351
76742 56114 335
50250 91541 351
28347 62016 340
46797 91550 351
80106 46110 351
73893 66118 325
18560 38876 324
28004 47830 324
95194 29269 351
74640 57122 335
43607 55023 340
10482 23227 279
53744 57768 322
40670 45933 314
18898 44898 324
19529 77148 351
80338 90828 333
58100 48767 340
19949 88930 351
36166 32636 324
59599 19698 340
79987 36592 351
76451 45454 340
98544 87121 333
70006 64037 312
62538 71520 330
62351 69426 330
29119 54467 340
96562 12877 351
53142 93516 351
92950 76155 351
95879 64645 351
53817 77773 351
57324 31859 340
68354 67629 312
72458 97117 351
85403 45034 351
46807 67079 340
34813 17001 311
99429 33156 351
90866 28400 351
39754 87525 351
22832 80912 351
49443 37451 314
15405 81245 351
32775 13194 308
55628 90385 351
76531 48771 340
31809 39642 324
97591 13630 351
14740 88153 351
42637 48962 314
22691 18955 274
66590 39337 340
99748 92550 328
12362 54640 340
13604 89468 351
