..................
----------------------------------------------------------------------
Ran 18 tests in 0.126s

OK
Name             Stmts   Miss Branch BrPart  Cover   Missing
------------------------------------------------------------
Collatz.py          31      0     10      0   100%
TestCollatz.py      78      0      0      0   100%
------------------------------------------------------------
TOTAL              109      0     10      0   100%